{ "frames": [
   {
    "filename": "e-p-attack 0.ase",
    "frame": { "x": 0, "y": 0, "w": 24, "h": 24 },
    "rotated": false,
    "trimmed": false,
    "spriteSourceSize": { "x": 0, "y": 0, "w": 24, "h": 24 },
    "sourceSize": { "w": 24, "h": 24 },
    "duration": 30
   },
   {
    "filename": "e-p-attack 1.ase",
    "frame": { "x": 24, "y": 0, "w": 24, "h": 24 },
    "rotated": false,
    "trimmed": false,
    "spriteSourceSize": { "x": 0, "y": 0, "w": 24, "h": 24 },
    "sourceSize": { "w": 24, "h": 24 },
    "duration": 50
   },
   {
    "filename": "e-p-attack 2.ase",
    "frame": { "x": 48, "y": 0, "w": 24, "h": 24 },
    "rotated": false,
    "trimmed": false,
    "spriteSourceSize": { "x": 0, "y": 0, "w": 24, "h": 24 },
    "sourceSize": { "w": 24, "h": 24 },
    "duration": 50
   },
   {
    "filename": "e-p-attack 3.ase",
    "frame": { "x": 72, "y": 0, "w": 24, "h": 24 },
    "rotated": false,
    "trimmed": false,
    "spriteSourceSize": { "x": 0, "y": 0, "w": 24, "h": 24 },
    "sourceSize": { "w": 24, "h": 24 },
    "duration": 50
   },
   {
    "filename": "e-p-attack 4.ase",
    "frame": { "x": 96, "y": 0, "w": 24, "h": 24 },
    "rotated": false,
    "trimmed": false,
    "spriteSourceSize": { "x": 0, "y": 0, "w": 24, "h": 24 },
    "sourceSize": { "w": 24, "h": 24 },
    "duration": 50
   },
   {
    "filename": "e-p-attack 5.ase",
    "frame": { "x": 120, "y": 0, "w": 24, "h": 24 },
    "rotated": false,
    "trimmed": false,
    "spriteSourceSize": { "x": 0, "y": 0, "w": 24, "h": 24 },
    "sourceSize": { "w": 24, "h": 24 },
    "duration": 70
   },
   {
    "filename": "e-p-attack 6.ase",
    "frame": { "x": 144, "y": 0, "w": 24, "h": 24 },
    "rotated": false,
    "trimmed": false,
    "spriteSourceSize": { "x": 0, "y": 0, "w": 24, "h": 24 },
    "sourceSize": { "w": 24, "h": 24 },
    "duration": 70
   },
   {
    "filename": "e-p-attack 7.ase",
    "frame": { "x": 168, "y": 0, "w": 24, "h": 24 },
    "rotated": false,
    "trimmed": false,
    "spriteSourceSize": { "x": 0, "y": 0, "w": 24, "h": 24 },
    "sourceSize": { "w": 24, "h": 24 },
    "duration": 100
   },
   {
    "filename": "e-p-attack 8.ase",
    "frame": { "x": 192, "y": 0, "w": 24, "h": 24 },
    "rotated": false,
    "trimmed": false,
    "spriteSourceSize": { "x": 0, "y": 0, "w": 24, "h": 24 },
    "sourceSize": { "w": 24, "h": 24 },
    "duration": 100
   },
   {
    "filename": "e-p-attack 9.ase",
    "frame": { "x": 216, "y": 0, "w": 24, "h": 24 },
    "rotated": false,
    "trimmed": false,
    "spriteSourceSize": { "x": 0, "y": 0, "w": 24, "h": 24 },
    "sourceSize": { "w": 24, "h": 24 },
    "duration": 100
   },
   {
    "filename": "e-p-attack 10.ase",
    "frame": { "x": 240, "y": 0, "w": 24, "h": 24 },
    "rotated": false,
    "trimmed": false,
    "spriteSourceSize": { "x": 0, "y": 0, "w": 24, "h": 24 },
    "sourceSize": { "w": 24, "h": 24 },
    "duration": 100
   },
   {
    "filename": "e-p-attack 11.ase",
    "frame": { "x": 264, "y": 0, "w": 24, "h": 24 },
    "rotated": false,
    "trimmed": false,
    "spriteSourceSize": { "x": 0, "y": 0, "w": 24, "h": 24 },
    "sourceSize": { "w": 24, "h": 24 },
    "duration": 100
   },
   {
    "filename": "e-p-attack 12.ase",
    "frame": { "x": 288, "y": 0, "w": 24, "h": 24 },
    "rotated": false,
    "trimmed": false,
    "spriteSourceSize": { "x": 0, "y": 0, "w": 24, "h": 24 },
    "sourceSize": { "w": 24, "h": 24 },
    "duration": 100
   },
   {
    "filename": "e-p-attack 13.ase",
    "frame": { "x": 312, "y": 0, "w": 24, "h": 24 },
    "rotated": false,
    "trimmed": false,
    "spriteSourceSize": { "x": 0, "y": 0, "w": 24, "h": 24 },
    "sourceSize": { "w": 24, "h": 24 },
    "duration": 100
   },
   {
    "filename": "e-p-attack 14.ase",
    "frame": { "x": 336, "y": 0, "w": 24, "h": 24 },
    "rotated": false,
    "trimmed": false,
    "spriteSourceSize": { "x": 0, "y": 0, "w": 24, "h": 24 },
    "sourceSize": { "w": 24, "h": 24 },
    "duration": 100
   },
   {
    "filename": "e-p-attack 15.ase",
    "frame": { "x": 360, "y": 0, "w": 24, "h": 24 },
    "rotated": false,
    "trimmed": false,
    "spriteSourceSize": { "x": 0, "y": 0, "w": 24, "h": 24 },
    "sourceSize": { "w": 24, "h": 24 },
    "duration": 100
   },
   {
    "filename": "e-p-attack 16.ase",
    "frame": { "x": 384, "y": 0, "w": 24, "h": 24 },
    "rotated": false,
    "trimmed": false,
    "spriteSourceSize": { "x": 0, "y": 0, "w": 24, "h": 24 },
    "sourceSize": { "w": 24, "h": 24 },
    "duration": 100
   },
   {
    "filename": "e-p-attack 17.ase",
    "frame": { "x": 408, "y": 0, "w": 24, "h": 24 },
    "rotated": false,
    "trimmed": false,
    "spriteSourceSize": { "x": 0, "y": 0, "w": 24, "h": 24 },
    "sourceSize": { "w": 24, "h": 24 },
    "duration": 100
   },
   {
    "filename": "e-p-attack 18.ase",
    "frame": { "x": 432, "y": 0, "w": 24, "h": 24 },
    "rotated": false,
    "trimmed": false,
    "spriteSourceSize": { "x": 0, "y": 0, "w": 24, "h": 24 },
    "sourceSize": { "w": 24, "h": 24 },
    "duration": 100
   },
   {
    "filename": "e-p-attack 19.ase",
    "frame": { "x": 456, "y": 0, "w": 24, "h": 24 },
    "rotated": false,
    "trimmed": false,
    "spriteSourceSize": { "x": 0, "y": 0, "w": 24, "h": 24 },
    "sourceSize": { "w": 24, "h": 24 },
    "duration": 200
   },
   {
    "filename": "e-p-attack 20.ase",
    "frame": { "x": 480, "y": 0, "w": 24, "h": 24 },
    "rotated": false,
    "trimmed": false,
    "spriteSourceSize": { "x": 0, "y": 0, "w": 24, "h": 24 },
    "sourceSize": { "w": 24, "h": 24 },
    "duration": 50
   },
   {
    "filename": "e-p-attack 21.ase",
    "frame": { "x": 504, "y": 0, "w": 24, "h": 24 },
    "rotated": false,
    "trimmed": false,
    "spriteSourceSize": { "x": 0, "y": 0, "w": 24, "h": 24 },
    "sourceSize": { "w": 24, "h": 24 },
    "duration": 80
   },
   {
    "filename": "e-p-attack 22.ase",
    "frame": { "x": 528, "y": 0, "w": 24, "h": 24 },
    "rotated": false,
    "trimmed": false,
    "spriteSourceSize": { "x": 0, "y": 0, "w": 24, "h": 24 },
    "sourceSize": { "w": 24, "h": 24 },
    "duration": 500
   },
   {
    "filename": "e-p-attack 23.ase",
    "frame": { "x": 552, "y": 0, "w": 24, "h": 24 },
    "rotated": false,
    "trimmed": false,
    "spriteSourceSize": { "x": 0, "y": 0, "w": 24, "h": 24 },
    "sourceSize": { "w": 24, "h": 24 },
    "duration": 500
   },
   {
    "filename": "e-p-attack 24.ase",
    "frame": { "x": 576, "y": 0, "w": 24, "h": 24 },
    "rotated": false,
    "trimmed": false,
    "spriteSourceSize": { "x": 0, "y": 0, "w": 24, "h": 24 },
    "sourceSize": { "w": 24, "h": 24 },
    "duration": 500
   },
   {
    "filename": "e-p-attack 25.ase",
    "frame": { "x": 600, "y": 0, "w": 24, "h": 24 },
    "rotated": false,
    "trimmed": false,
    "spriteSourceSize": { "x": 0, "y": 0, "w": 24, "h": 24 },
    "sourceSize": { "w": 24, "h": 24 },
    "duration": 50
   },
   {
    "filename": "e-p-attack 26.ase",
    "frame": { "x": 624, "y": 0, "w": 24, "h": 24 },
    "rotated": false,
    "trimmed": false,
    "spriteSourceSize": { "x": 0, "y": 0, "w": 24, "h": 24 },
    "sourceSize": { "w": 24, "h": 24 },
    "duration": 150
   },
   {
    "filename": "e-p-attack 27.ase",
    "frame": { "x": 648, "y": 0, "w": 24, "h": 24 },
    "rotated": false,
    "trimmed": false,
    "spriteSourceSize": { "x": 0, "y": 0, "w": 24, "h": 24 },
    "sourceSize": { "w": 24, "h": 24 },
    "duration": 150
   },
   {
    "filename": "e-p-attack 28.ase",
    "frame": { "x": 672, "y": 0, "w": 24, "h": 24 },
    "rotated": false,
    "trimmed": false,
    "spriteSourceSize": { "x": 0, "y": 0, "w": 24, "h": 24 },
    "sourceSize": { "w": 24, "h": 24 },
    "duration": 150
   },
   {
    "filename": "e-p-attack 29.ase",
    "frame": { "x": 696, "y": 0, "w": 24, "h": 24 },
    "rotated": false,
    "trimmed": false,
    "spriteSourceSize": { "x": 0, "y": 0, "w": 24, "h": 24 },
    "sourceSize": { "w": 24, "h": 24 },
    "duration": 150
   },
   {
    "filename": "e-p-attack 30.ase",
    "frame": { "x": 720, "y": 0, "w": 24, "h": 24 },
    "rotated": false,
    "trimmed": false,
    "spriteSourceSize": { "x": 0, "y": 0, "w": 24, "h": 24 },
    "sourceSize": { "w": 24, "h": 24 },
    "duration": 100
   }
 ],
 "meta": {
  "app": "http://www.aseprite.org/",
  "version": "1.2.25-x64",
  "image": "e-p-all.png",
  "format": "RGBA8888",
  "size": { "w": 744, "h": 24 },
  "scale": "1",
  "frameTags": [
   { "name": "attack", "from": 0, "to": 6, "direction": "forward" },
   { "name": "kniflip", "from": 7, "to": 14, "direction": "forward" },
   { "name": "idle", "from": 15, "to": 18, "direction": "forward" },
   { "name": "headturn", "from": 19, "to": 25, "direction": "forward" },
   { "name": "walk", "from": 26, "to": 29, "direction": "forward" }
  ],
  "layers": [
   { "name": "BACK", "opacity": 255, "blendMode": "normal" },
   { "name": "chef", "opacity": 255, "blendMode": "normal" },
   { "name": "arm", "opacity": 255, "blendMode": "normal" },
   { "name": "knif", "opacity": 255, "blendMode": "normal" },
   { "name": "fx", "opacity": 255, "blendMode": "normal" }
  ],
  "slices": [
  ]
 }
}
