{ "frames": [
   {
    "filename": "Layer 14[0]",
    "frame": { "x": 215, "y": 0, "w": 63, "h": 24 },
    "rotated": false,
    "trimmed": true,
    "spriteSourceSize": { "x": 146, "y": 96, "w": 63, "h": 24 },
    "sourceSize": { "w": 315, "h": 165 },
    "duration": 100
   },
   {
    "filename": "Layer 19[0]",
    "frame": { "x": 139, "y": 0, "w": 76, "h": 21 },
    "rotated": false,
    "trimmed": true,
    "spriteSourceSize": { "x": 66, "y": 99, "w": 76, "h": 21 },
    "sourceSize": { "w": 315, "h": 165 },
    "duration": 100
   },
   {
    "filename": "Layer 18[0]",
    "frame": { "x": 139, "y": 21, "w": 46, "h": 19 },
    "rotated": false,
    "trimmed": true,
    "spriteSourceSize": { "x": 5, "y": 53, "w": 46, "h": 19 },
    "sourceSize": { "w": 315, "h": 165 },
    "duration": 100
   },
   {
    "filename": "Layer 17[0]",
    "frame": { "x": 42, "y": 24, "w": 36, "h": 16 },
    "rotated": false,
    "trimmed": true,
    "spriteSourceSize": { "x": 7, "y": 23, "w": 36, "h": 16 },
    "sourceSize": { "w": 315, "h": 165 },
    "duration": 100
   },
   {
    "filename": "Layer 16[0]",
    "frame": { "x": 0, "y": 24, "w": 42, "h": 19 },
    "rotated": false,
    "trimmed": true,
    "spriteSourceSize": { "x": 46, "y": 20, "w": 42, "h": 19 },
    "sourceSize": { "w": 315, "h": 165 },
    "duration": 100
   },
   {
    "filename": "Layer 15[0]",
    "frame": { "x": 0, "y": 0, "w": 139, "h": 24 },
    "rotated": false,
    "trimmed": true,
    "spriteSourceSize": { "x": 64, "y": 49, "w": 139, "h": 24 },
    "sourceSize": { "w": 315, "h": 165 },
    "duration": 100
   }
 ],
 "meta": {
  "app": "http://www.aseprite.org/",
  "version": "1.2.25-x64",
  "image": "env-nature-bgbushes.png",
  "format": "RGBA8888",
  "size": { "w": 278, "h": 43 },
  "scale": "1",
  "frameTags": [
  ],
  "layers": [
   { "name": "bgbushes" },
   { "name": "Layer 14", "group": "bgbushes", "opacity": 255, "blendMode": "normal" },
   { "name": "Layer 19", "group": "bgbushes", "opacity": 255, "blendMode": "normal" },
   { "name": "Layer 18", "group": "bgbushes", "opacity": 255, "blendMode": "normal" },
   { "name": "Layer 17", "group": "bgbushes", "opacity": 255, "blendMode": "normal" },
   { "name": "Layer 16", "group": "bgbushes", "opacity": 255, "blendMode": "normal" },
   { "name": "Layer 15", "group": "bgbushes", "opacity": 255, "blendMode": "normal" }
  ],
  "slices": [
  ]
 }
}
