{ "frames": [
   {
    "filename": "charset 0.ase",
    "frame": { "x": 0, "y": 0, "w": 5, "h": 5 },
    "rotated": false,
    "trimmed": false,
    "spriteSourceSize": { "x": 0, "y": 0, "w": 5, "h": 5 },
    "sourceSize": { "w": 5, "h": 5 },
    "duration": 100
   },
   {
    "filename": "charset 1.ase",
    "frame": { "x": 5, "y": 0, "w": 5, "h": 5 },
    "rotated": false,
    "trimmed": false,
    "spriteSourceSize": { "x": 0, "y": 0, "w": 5, "h": 5 },
    "sourceSize": { "w": 5, "h": 5 },
    "duration": 100
   },
   {
    "filename": "charset 2.ase",
    "frame": { "x": 10, "y": 0, "w": 5, "h": 5 },
    "rotated": false,
    "trimmed": false,
    "spriteSourceSize": { "x": 0, "y": 0, "w": 5, "h": 5 },
    "sourceSize": { "w": 5, "h": 5 },
    "duration": 100
   },
   {
    "filename": "charset 3.ase",
    "frame": { "x": 15, "y": 0, "w": 5, "h": 5 },
    "rotated": false,
    "trimmed": false,
    "spriteSourceSize": { "x": 0, "y": 0, "w": 5, "h": 5 },
    "sourceSize": { "w": 5, "h": 5 },
    "duration": 100
   },
   {
    "filename": "charset 4.ase",
    "frame": { "x": 20, "y": 0, "w": 5, "h": 5 },
    "rotated": false,
    "trimmed": false,
    "spriteSourceSize": { "x": 0, "y": 0, "w": 5, "h": 5 },
    "sourceSize": { "w": 5, "h": 5 },
    "duration": 100
   },
   {
    "filename": "charset 5.ase",
    "frame": { "x": 25, "y": 0, "w": 5, "h": 5 },
    "rotated": false,
    "trimmed": false,
    "spriteSourceSize": { "x": 0, "y": 0, "w": 5, "h": 5 },
    "sourceSize": { "w": 5, "h": 5 },
    "duration": 100
   },
   {
    "filename": "charset 6.ase",
    "frame": { "x": 30, "y": 0, "w": 5, "h": 5 },
    "rotated": false,
    "trimmed": false,
    "spriteSourceSize": { "x": 0, "y": 0, "w": 5, "h": 5 },
    "sourceSize": { "w": 5, "h": 5 },
    "duration": 100
   },
   {
    "filename": "charset 7.ase",
    "frame": { "x": 35, "y": 0, "w": 5, "h": 5 },
    "rotated": false,
    "trimmed": false,
    "spriteSourceSize": { "x": 0, "y": 0, "w": 5, "h": 5 },
    "sourceSize": { "w": 5, "h": 5 },
    "duration": 100
   },
   {
    "filename": "charset 8.ase",
    "frame": { "x": 40, "y": 0, "w": 5, "h": 5 },
    "rotated": false,
    "trimmed": false,
    "spriteSourceSize": { "x": 0, "y": 0, "w": 5, "h": 5 },
    "sourceSize": { "w": 5, "h": 5 },
    "duration": 100
   },
   {
    "filename": "charset 9.ase",
    "frame": { "x": 45, "y": 0, "w": 5, "h": 5 },
    "rotated": false,
    "trimmed": false,
    "spriteSourceSize": { "x": 0, "y": 0, "w": 5, "h": 5 },
    "sourceSize": { "w": 5, "h": 5 },
    "duration": 100
   },
   {
    "filename": "charset 10.ase",
    "frame": { "x": 50, "y": 0, "w": 5, "h": 5 },
    "rotated": false,
    "trimmed": false,
    "spriteSourceSize": { "x": 0, "y": 0, "w": 5, "h": 5 },
    "sourceSize": { "w": 5, "h": 5 },
    "duration": 100
   },
   {
    "filename": "charset 11.ase",
    "frame": { "x": 55, "y": 0, "w": 5, "h": 5 },
    "rotated": false,
    "trimmed": false,
    "spriteSourceSize": { "x": 0, "y": 0, "w": 5, "h": 5 },
    "sourceSize": { "w": 5, "h": 5 },
    "duration": 100
   },
   {
    "filename": "charset 12.ase",
    "frame": { "x": 60, "y": 0, "w": 5, "h": 5 },
    "rotated": false,
    "trimmed": false,
    "spriteSourceSize": { "x": 0, "y": 0, "w": 5, "h": 5 },
    "sourceSize": { "w": 5, "h": 5 },
    "duration": 100
   },
   {
    "filename": "charset 13.ase",
    "frame": { "x": 65, "y": 0, "w": 5, "h": 5 },
    "rotated": false,
    "trimmed": false,
    "spriteSourceSize": { "x": 0, "y": 0, "w": 5, "h": 5 },
    "sourceSize": { "w": 5, "h": 5 },
    "duration": 100
   },
   {
    "filename": "charset 14.ase",
    "frame": { "x": 70, "y": 0, "w": 5, "h": 5 },
    "rotated": false,
    "trimmed": false,
    "spriteSourceSize": { "x": 0, "y": 0, "w": 5, "h": 5 },
    "sourceSize": { "w": 5, "h": 5 },
    "duration": 100
   },
   {
    "filename": "charset 15.ase",
    "frame": { "x": 75, "y": 0, "w": 5, "h": 5 },
    "rotated": false,
    "trimmed": false,
    "spriteSourceSize": { "x": 0, "y": 0, "w": 5, "h": 5 },
    "sourceSize": { "w": 5, "h": 5 },
    "duration": 100
   },
   {
    "filename": "charset 16.ase",
    "frame": { "x": 80, "y": 0, "w": 5, "h": 5 },
    "rotated": false,
    "trimmed": false,
    "spriteSourceSize": { "x": 0, "y": 0, "w": 5, "h": 5 },
    "sourceSize": { "w": 5, "h": 5 },
    "duration": 100
   },
   {
    "filename": "charset 17.ase",
    "frame": { "x": 85, "y": 0, "w": 5, "h": 5 },
    "rotated": false,
    "trimmed": false,
    "spriteSourceSize": { "x": 0, "y": 0, "w": 5, "h": 5 },
    "sourceSize": { "w": 5, "h": 5 },
    "duration": 100
   },
   {
    "filename": "charset 18.ase",
    "frame": { "x": 90, "y": 0, "w": 5, "h": 5 },
    "rotated": false,
    "trimmed": false,
    "spriteSourceSize": { "x": 0, "y": 0, "w": 5, "h": 5 },
    "sourceSize": { "w": 5, "h": 5 },
    "duration": 100
   },
   {
    "filename": "charset 19.ase",
    "frame": { "x": 95, "y": 0, "w": 5, "h": 5 },
    "rotated": false,
    "trimmed": false,
    "spriteSourceSize": { "x": 0, "y": 0, "w": 5, "h": 5 },
    "sourceSize": { "w": 5, "h": 5 },
    "duration": 100
   },
   {
    "filename": "charset 20.ase",
    "frame": { "x": 100, "y": 0, "w": 5, "h": 5 },
    "rotated": false,
    "trimmed": false,
    "spriteSourceSize": { "x": 0, "y": 0, "w": 5, "h": 5 },
    "sourceSize": { "w": 5, "h": 5 },
    "duration": 100
   },
   {
    "filename": "charset 21.ase",
    "frame": { "x": 105, "y": 0, "w": 5, "h": 5 },
    "rotated": false,
    "trimmed": false,
    "spriteSourceSize": { "x": 0, "y": 0, "w": 5, "h": 5 },
    "sourceSize": { "w": 5, "h": 5 },
    "duration": 100
   },
   {
    "filename": "charset 22.ase",
    "frame": { "x": 110, "y": 0, "w": 5, "h": 5 },
    "rotated": false,
    "trimmed": false,
    "spriteSourceSize": { "x": 0, "y": 0, "w": 5, "h": 5 },
    "sourceSize": { "w": 5, "h": 5 },
    "duration": 100
   },
   {
    "filename": "charset 23.ase",
    "frame": { "x": 115, "y": 0, "w": 5, "h": 5 },
    "rotated": false,
    "trimmed": false,
    "spriteSourceSize": { "x": 0, "y": 0, "w": 5, "h": 5 },
    "sourceSize": { "w": 5, "h": 5 },
    "duration": 100
   },
   {
    "filename": "charset 24.ase",
    "frame": { "x": 120, "y": 0, "w": 5, "h": 5 },
    "rotated": false,
    "trimmed": false,
    "spriteSourceSize": { "x": 0, "y": 0, "w": 5, "h": 5 },
    "sourceSize": { "w": 5, "h": 5 },
    "duration": 100
   },
   {
    "filename": "charset 25.ase",
    "frame": { "x": 125, "y": 0, "w": 5, "h": 5 },
    "rotated": false,
    "trimmed": false,
    "spriteSourceSize": { "x": 0, "y": 0, "w": 5, "h": 5 },
    "sourceSize": { "w": 5, "h": 5 },
    "duration": 100
   }
 ],
 "meta": {
  "app": "http://www.aseprite.org/",
  "version": "1.2.25-x64",
  "image": "symbols-light.png",
  "format": "I8",
  "size": { "w": 130, "h": 5 },
  "scale": "1",
  "frameTags": [
  ],
  "layers": [
   { "name": "chars", "opacity": 255, "blendMode": "normal" }
  ],
  "slices": [
  ]
 }
}
